Text Analysis In R On Linkin Park - Meteora Song Lyrics
…
meteora_bigrams <- meteora_lyrics_df %>% 
  unnest_tokens(bigram, input = Text, token = "ngrams", n = 2)

# Look at the bigrams:

meteora_bigrams

## # A tibble: 3,758 x 1
##               bigram
##                <chr>
##  1       sometimes i
##  2            i need
##  3           need to
##  4       to remember
##  5     remember just
##  6           just to
##  7        to breathe
##  8 breathe sometimes
##  9       sometimes i
## 10            i need
## # ... with 3,748 more rows
…
Notice how these counts include the separate words. The unite() function here will unite the two words into bigrams along with their counts.

# Unite the words with the unite() function:

meteora_bigrams_wordcounts <- meteora_bigrams_wordcounts %>%
  unite(bigram, word1, word2, sep = " ")

meteora_bigrams_wordcounts

## # A tibble: 80 x 2
##                bigram     n
##  *              <chr> <int>
##  1 nobody's listening    10
##  2         wanna feel     8
##  3         wanna heal     8
##  4         heart stop     6
##  5    memories forget     6
##  6        stay forget     6
##  7         wrong move     6
##  8         anger held     3
##  9        blood sweat     3
## 10     damage anymore     3
## # ... with 70 more rows
…
