Text Analysis In R On Dr.Seuss Fox In Socks
…
Bigrams Counts In Fox In Socks

Instead of the counts of single words, counts of two word phrases or bigrams can be obtained.

# 2) Bigrams (Two-Word Phrases) In Fox In Socks

foxSocks_bigrams <- foxSocks_book_df %>% 
  unnest_tokens(bigram, input = Text, token = "ngrams", n = 2)

# Look at the bigrams:

foxSocks_bigrams

## # A tibble: 841 x 1
##        bigram
##         <chr>
##  1  fox socks
##  2  socks box
##  3   box knox
##  4  knox knox
##  5    knox in
##  6     in box
##  7    box fox
##  8     fox in
##  9   in socks
## 10 socks knox
## # ... with 831 more rows
…
The separated words can be reunited together with tidyr’s unite() function.

# Unite the words with the unite() function:

foxSocks_bigrams_counts <- foxSocks_bigrams_counts %>%
  unite(bigram, word1, word2, sep = " ")

foxSocks_bigrams_counts

## # A tibble: 199 x 2
##             bigram     n
##  *           <chr> <int>
##  1        knox sir     5
##  2        slow joe     5
##  3  tweetle beetle     5
##  4 tweetle beetles     5
##  5       luke luck     4
##  6   paddle battle     4
##  7     quick trick     4
##  8        sue sews     4
##  9  beetles battle     3
## 10     bends ben's     3
## # ... with 189 more rows
…
