Text Mining/Analysis On A Few Rap Lyrics With R Programming
…
And a hundred percent reason to remember the name!

Bigrams: Two Word Phrases

### 1b) Bigrams (Two-Word Phrases) in Remember The Name:

remember_bigrams <- remember_lyrics_df %>% 
unnest_tokens(bigram, input = Text, token = "ngrams", n = 2)

# Look at the bigrams:

remember_bigrams

## # A tibble: 667 x 1
##         bigram
##          <chr>
##  1   you ready
##  2 ready let's
##  3    let's go
##  4     go yeah
##  5    yeah for
##  6   for those
##  7    those of
##  8      of you
##  9    you that
## 10   that want
## # ... with 657 more rows
…
The words are united with the use of the unite() function along with their counts. A bar graph with the help of ggplot2 can be generated.

# Unite the words with the unite() function:

remember_bigrams_counts <- bigrams_remember_counts %>%
unite(bigram, word1, word2, sep = " ")

remember_bigrams_counts

## # A tibble: 52 x 2
##                  bigram     n
##  *                <chr> <int>
##  1      hundred percent     6
##  2        percent skill     5
##  3       twenty percent     5
##  4   concentrated power     4
##  5      fifteen percent     4
##  6        fifty percent     4
##  7          luck twenty     4
##  8 percent concentrated     4
##  9         percent luck     4
## 10         percent pain     4
## # ... with 42 more rows
…
Out of curiousity and experimentation, I wanted to look at three word phrases or trigrams.

Phrases which contain three words are called trigrams. In the unnest_tokens() function, you would need to change the n = argument to 3.

### 1c) Trigrams (Three-Word Phrases) in Remember The Name:

remember_trigrams <- remember_lyrics_df %>%
unnest_tokens(bigram, input = Text, token = "ngrams", n = 3)

# Look at the trigrams:

remember_trigrams

## # A tibble: 666 x 1
##             bigram
##              <chr>
##  1 you ready let's
##  2  ready let's go
##  3   let's go yeah
##  4     go yeah for
##  5  yeah for those
##  6    for those of
##  7    those of you
##  8     of you that
##  9   you that want
## 10    that want to
## # ... with 656 more rows
…
# Unite the words with the unite() function:

remember_trigrams_counts <- remember_trigrams_filt %>%
unite(bigram, word1, word2, word3, sep = " ")

remember_trigrams_counts

## # A tibble: 23 x 2
##                          bigram     n
##  *                        <chr> <int>
##  1         twenty percent skill     5
##  2 fifteen percent concentrated     4
##  3           fifty percent pain     4
##  4       hundred percent reason     4
##  5          luck twenty percent     4
##  6   percent concentrated power     4
##  7          percent luck twenty     4
##  8       percent pleasure fifty     4
##  9        percent skill fifteen     4
## 10       pleasure fifty percent     4
## # ... with 13 more rows
…
The most frequent word from Lose Yourself is shot. In addition, you know you have a rap song when you have words such as yo and da. Some other high frequency words in the track include miss, lose, opportunity, moment, lifetime and chance.

Bigrams In Lose Yourself

### 2b) Bigrams (Two-Word Phrases) in Remember The Name:

loseyourself_bigrams <- loseyourself_lyrics_df %>%
unnest_tokens(bigram, input = Text, token = "ngrams", n = 2)

# Look at the bigrams:

loseyourself_bigrams

## # A tibble: 806 x 1
##             bigram
##              <chr>
##  1         look if
##  2          if you
##  3         you had
##  4         had one
##  5        one shot
##  6         shot or
##  7          or one
##  8 one opportunity
##  9  opportunity to
## 10        to seize
## # ... with 796 more rows
…
# Unite the words with the unite() function:

loseyourself_bigrams_counts <- bigrams_loseyourself_counts %>%
unite(bigram, word1, word2, sep = " ")

loseyourself_bigrams_counts

## # A tibble: 57 x 2
##          bigram     n
##  *        <chr> <int>
##  1  lifetime yo     6
##  2        da da     4
##  3       da dum     2
##  4       dum da     2
##  5    baby mama     1
##  6   blaow snap     1
##  7  buy diapers     1
##  8    call rage     1
##  9  clock's run     1
## 10 cold product     1
## # ... with 47 more rows
…
